{
  "history" : {
    "Re" : {
      "0ORfekOSAhkcYgdTS4YK8f" : {
        "album" : {
          "name" : "Summer Nights",
          "uri" : "spotify:album:1G3PxwMZ659bTDQvtEja2V"
        },
        "artists" : [ {
          "external_urls" : {
            "spotify" : "https://open.spotify.com/artist/7LWdcPFBFcRaamGjIJbPV7"
          },
          "href" : "https://api.spotify.com/v1/artists/7LWdcPFBFcRaamGjIJbPV7",
          "id" : "7LWdcPFBFcRaamGjIJbPV7",
          "name" : "Laffey",
          "type" : "artist",
          "uri" : "spotify:artist:7LWdcPFBFcRaamGjIJbPV7"
        } ],
        "duration" : 122718,
        "id" : "0ORfekOSAhkcYgdTS4YK8f",
        "image" : "https://i.scdn.co/image/ab67616d00001e02669354dc4abc3d2f5059e631",
        "isPaused" : false,
        "name" : "Umbrella",
        "score" : 0,
        "timeTrackStarted" : 1602702705678,
        "uri" : "spotify:track:0ORfekOSAhkcYgdTS4YK8f"
      },
      "0hiaD4N4EWpJnEmkMZEEgr" : {
        "album" : {
          "name" : "Hits Mexicanos",
          "uri" : "spotify:album:4lxo0yPrUCcKiSP3yAxJTB"
        },
        "artists" : [ {
          "external_urls" : {
            "spotify" : "https://open.spotify.com/artist/6sq1yF0OZEWA4xoXVKW1L9"
          },
          "href" : "https://api.spotify.com/v1/artists/6sq1yF0OZEWA4xoXVKW1L9",
          "id" : "6sq1yF0OZEWA4xoXVKW1L9",
          "name" : "Alejandro Fernández",
          "type" : "artist",
          "uri" : "spotify:artist:6sq1yF0OZEWA4xoXVKW1L9"
        }, {
          "external_urls" : {
            "spotify" : "https://open.spotify.com/artist/0XwVARXT135rw8lyw1EeWP"
          },
          "href" : "https://api.spotify.com/v1/artists/0XwVARXT135rw8lyw1EeWP",
          "id" : "0XwVARXT135rw8lyw1EeWP",
          "name" : "Christian Nodal",
          "type" : "artist",
          "uri" : "spotify:artist:0XwVARXT135rw8lyw1EeWP"
        } ],
        "duration" : 222226,
        "id" : "0hiaD4N4EWpJnEmkMZEEgr",
        "image" : "https://i.scdn.co/image/ab67616d00001e025c9fdd84c8713e69b5215663",
        "isPaused" : false,
        "name" : "Más No Puedo",
        "score" : 0,
        "timeTrackStarted" : 1601268940814,
        "uri" : "spotify:track:0hiaD4N4EWpJnEmkMZEEgr"
      },
      "1IIKrJVP1C9N7iPtG6eOsK" : {
        "album" : {
          "name" : "Slime & B",
          "uri" : "spotify:album:7fZKtzZAsfH0kzeTivu5TG"
        },
        "artists" : [ {
          "external_urls" : {
            "spotify" : "https://open.spotify.com/artist/7bXgB6jMjp9ATFy66eO08Z"
          },
          "href" : "https://api.spotify.com/v1/artists/7bXgB6jMjp9ATFy66eO08Z",
          "id" : "7bXgB6jMjp9ATFy66eO08Z",
          "name" : "Chris Brown",
          "type" : "artist",
          "uri" : "spotify:artist:7bXgB6jMjp9ATFy66eO08Z"
        }, {
          "external_urls" : {
            "spotify" : "https://open.spotify.com/artist/50co4Is1HCEo8bhOyUWKpn"
          },
          "href" : "https://api.spotify.com/v1/artists/50co4Is1HCEo8bhOyUWKpn",
          "id" : "50co4Is1HCEo8bhOyUWKpn",
          "name" : "Young Thug",
          "type" : "artist",
          "uri" : "spotify:artist:50co4Is1HCEo8bhOyUWKpn"
        } ],
        "duration" : 176960,
        "id" : "1IIKrJVP1C9N7iPtG6eOsK",
        "image" : "https://i.scdn.co/image/ab67616d00001e0263e0ddbb488d0eeec0e738fc",
        "isPaused" : false,
        "name" : "Go Crazy",
        "score" : 0,
        "timeTrackStarted" : 1600745797316,
        "uri" : "spotify:track:1IIKrJVP1C9N7iPtG6eOsK"
      },
      "1irAliF0T8sLIOPJp6n7rU" : {
        "album" : {
          "name" : "Single Saturday Night",
          "uri" : "spotify:album:1wmVEVgetT1F0Qnu0651Ps"
        },
        "artists" : [ {
          "external_urls" : {
            "spotify" : "https://open.spotify.com/artist/1mfDfLsMxYcOOZkzBxvSVW"
          },
          "href" : "https://api.spotify.com/v1/artists/1mfDfLsMxYcOOZkzBxvSVW",
          "id" : "1mfDfLsMxYcOOZkzBxvSVW",
          "name" : "Cole Swindell",
          "type" : "artist",
          "uri" : "spotify:artist:1mfDfLsMxYcOOZkzBxvSVW"
        } ],
        "duration" : 187683,
        "id" : "1irAliF0T8sLIOPJp6n7rU",
        "image" : "https://i.scdn.co/image/ab67616d00001e029a65bca0922da37bd78a6d07",
        "isPaused" : false,
        "name" : "Single Saturday Night",
        "score" : 3,
        "timeTrackStarted" : 1604797847091,
        "uri" : "spotify:track:1irAliF0T8sLIOPJp6n7rU"
      },
      "1ojVx5LnVcBCGYPL7QC5eW" : {
        "album" : {
          "name" : "Umaasa",
          "uri" : "spotify:album:4icBARf3NUeP5SfMRMQOHU"
        },
        "artists" : [ {
          "external_urls" : {
            "spotify" : "https://open.spotify.com/artist/117XFtbZPnCI1EYKjYZWJc"
          },
          "href" : "https://api.spotify.com/v1/artists/117XFtbZPnCI1EYKjYZWJc",
          "id" : "117XFtbZPnCI1EYKjYZWJc",
          "name" : "Skusta Clee",
          "type" : "artist",
          "uri" : "spotify:artist:117XFtbZPnCI1EYKjYZWJc"
        } ],
        "duration" : 261500,
        "id" : "1ojVx5LnVcBCGYPL7QC5eW",
        "image" : "https://i.scdn.co/image/ab67616d00001e02b26cff2437b4908c9496a182",
        "isPaused" : false,
        "name" : "Umaasa",
        "score" : 0,
        "timeTrackStarted" : 1604808803709,
        "uri" : "spotify:track:1ojVx5LnVcBCGYPL7QC5eW"
      },
      "24bnCCysWnbNRNUT4LpHcP" : {
        "album" : {
          "name" : "JESUS IS KING",
          "uri" : "spotify:album:0FgZKfoU2Br5sHOfvZKTI9"
        },
        "artists" : [ {
          "external_urls" : {
            "spotify" : "https://open.spotify.com/artist/5K4W6rqBFWDnAN6FQUkS6x"
          },
          "href" : "https://api.spotify.com/v1/artists/5K4W6rqBFWDnAN6FQUkS6x",
          "id" : "5K4W6rqBFWDnAN6FQUkS6x",
          "name" : "Kanye West",
          "type" : "artist",
          "uri" : "spotify:artist:5K4W6rqBFWDnAN6FQUkS6x"
        }, {
          "external_urls" : {
            "spotify" : "https://open.spotify.com/artist/7c0XG5cIJTrrAgEC3ULPiq"
          },
          "href" : "https://api.spotify.com/v1/artists/7c0XG5cIJTrrAgEC3ULPiq",
          "id" : "7c0XG5cIJTrrAgEC3ULPiq",
          "name" : "Ty Dolla $ign",
          "type" : "artist",
          "uri" : "spotify:artist:7c0XG5cIJTrrAgEC3ULPiq"
        }, {
          "external_urls" : {
            "spotify" : "https://open.spotify.com/artist/028lPW2NdWHdSPCkRkcyhd"
          },
          "href" : "https://api.spotify.com/v1/artists/028lPW2NdWHdSPCkRkcyhd",
          "id" : "028lPW2NdWHdSPCkRkcyhd",
          "name" : "Ant Clemons",
          "type" : "artist",
          "uri" : "spotify:artist:028lPW2NdWHdSPCkRkcyhd"
        } ],
        "duration" : 116559,
        "id" : "24bnCCysWnbNRNUT4LpHcP",
        "image" : "https://i.scdn.co/image/ab67616d00001e021bb797bbfe2480650b6c2964",
        "isPaused" : false,
        "name" : "Everything We Need",
        "score" : 0,
        "timeTrackStarted" : 1600745649923,
        "uri" : "spotify:track:24bnCCysWnbNRNUT4LpHcP"
      },
      "2CJTDmydhtOxCmmhnXq6ZX" : {
        "album" : {
          "name" : "Unli",
          "uri" : "spotify:album:36qG5nyXRkTfj2uYVy105N"
        },
        "artists" : [ {
          "external_urls" : {
            "spotify" : "https://open.spotify.com/artist/3PDFGpPl4ienSn5Vwisfrh"
          },
          "href" : "https://api.spotify.com/v1/artists/3PDFGpPl4ienSn5Vwisfrh",
          "id" : "3PDFGpPl4ienSn5Vwisfrh",
          "name" : "Flow G",
          "type" : "artist",
          "uri" : "spotify:artist:3PDFGpPl4ienSn5Vwisfrh"
        } ],
        "duration" : 194000,
        "id" : "2CJTDmydhtOxCmmhnXq6ZX",
        "image" : "https://i.scdn.co/image/ab67616d00001e02f33064ef49b9fbae22a095c7",
        "isPaused" : false,
        "name" : "Unli",
        "score" : 0,
        "timeTrackStarted" : 1604640606967,
        "uri" : "spotify:track:2CJTDmydhtOxCmmhnXq6ZX"
      },
      "2QpGZOhTCHHiKmpSO9FW4h" : {
        "album" : {
          "name" : "JESUS IS KING",
          "uri" : "spotify:album:0FgZKfoU2Br5sHOfvZKTI9"
        },
        "artists" : [ {
          "external_urls" : {
            "spotify" : "https://open.spotify.com/artist/5K4W6rqBFWDnAN6FQUkS6x"
          },
          "href" : "https://api.spotify.com/v1/artists/5K4W6rqBFWDnAN6FQUkS6x",
          "id" : "5K4W6rqBFWDnAN6FQUkS6x",
          "name" : "Kanye West",
          "type" : "artist",
          "uri" : "spotify:artist:5K4W6rqBFWDnAN6FQUkS6x"
        } ],
        "duration" : 104591,
        "id" : "2QpGZOhTCHHiKmpSO9FW4h",
        "image" : "https://i.scdn.co/image/ab67616d00001e021bb797bbfe2480650b6c2964",
        "isPaused" : false,
        "name" : "Follow God",
        "score" : 0,
        "timeTrackStarted" : 1604639790641,
        "uri" : "spotify:track:2QpGZOhTCHHiKmpSO9FW4h"
      },
      "34xTFwjPQ1dC6uJmleno7x" : {
        "album" : {
          "name" : "Blonde",
          "uri" : "spotify:album:3mH6qwIy9crq0I9YQbOuDf"
        },
        "artists" : [ {
          "external_urls" : {
            "spotify" : "https://open.spotify.com/artist/2h93pZq0e7k5yf4dywlkpM"
          },
          "href" : "https://api.spotify.com/v1/artists/2h93pZq0e7k5yf4dywlkpM",
          "id" : "2h93pZq0e7k5yf4dywlkpM",
          "name" : "Frank Ocean",
          "type" : "artist",
          "uri" : "spotify:artist:2h93pZq0e7k5yf4dywlkpM"
        } ],
        "duration" : 177922,
        "id" : "34xTFwjPQ1dC6uJmleno7x",
        "image" : "https://i.scdn.co/image/ab67616d00001e02c5649add07ed3720be9d5526",
        "isPaused" : false,
        "name" : "Godspeed",
        "score" : 0,
        "timeTrackStarted" : 1604730799986,
        "uri" : "spotify:track:34xTFwjPQ1dC6uJmleno7x"
      },
      "49FYlytm3dAAraYgpoJZux" : {
        "album" : {
          "name" : "Good Girl Gone Bad: Reloaded",
          "uri" : "spotify:album:3JSWZWeTHF4HDGt5Eozdy7"
        },
        "artists" : [ {
          "external_urls" : {
            "spotify" : "https://open.spotify.com/artist/5pKCCKE2ajJHZ9KAiaK11H"
          },
          "href" : "https://api.spotify.com/v1/artists/5pKCCKE2ajJHZ9KAiaK11H",
          "id" : "5pKCCKE2ajJHZ9KAiaK11H",
          "name" : "Rihanna",
          "type" : "artist",
          "uri" : "spotify:artist:5pKCCKE2ajJHZ9KAiaK11H"
        }, {
          "external_urls" : {
            "spotify" : "https://open.spotify.com/artist/3nFkdlSjzX9mRTtwJOzDYB"
          },
          "href" : "https://api.spotify.com/v1/artists/3nFkdlSjzX9mRTtwJOzDYB",
          "id" : "3nFkdlSjzX9mRTtwJOzDYB",
          "name" : "JAY-Z",
          "type" : "artist",
          "uri" : "spotify:artist:3nFkdlSjzX9mRTtwJOzDYB"
        } ],
        "duration" : 275986,
        "id" : "49FYlytm3dAAraYgpoJZux",
        "image" : "https://i.scdn.co/image/ab67616d00001e02f9f27162ab1ed45b8d7a7e98",
        "isPaused" : false,
        "name" : "Umbrella",
        "score" : 0,
        "timeTrackStarted" : 1602702162892,
        "uri" : "spotify:track:49FYlytm3dAAraYgpoJZux"
      },
      "4ljlAxfaEjO4Q4g9FMtVj4" : {
        "album" : {
          "name" : "Coco (Original Motion Picture Soundtrack)",
          "uri" : "spotify:album:7nMexBA71PdwPnfqS5Yji5"
        },
        "artists" : [ {
          "external_urls" : {
            "spotify" : "https://open.spotify.com/artist/52H65pWOSERcDK6uVFRwN8"
          },
          "href" : "https://api.spotify.com/v1/artists/52H65pWOSERcDK6uVFRwN8",
          "id" : "52H65pWOSERcDK6uVFRwN8",
          "name" : "Benjamin Bratt",
          "type" : "artist",
          "uri" : "spotify:artist:52H65pWOSERcDK6uVFRwN8"
        } ],
        "duration" : 109280,
        "id" : "4ljlAxfaEjO4Q4g9FMtVj4",
        "image" : "https://i.scdn.co/image/ab67616d00001e021f062b7159e8f230120512bf",
        "isPaused" : false,
        "name" : "Remember Me (Ernesto de la Cruz)",
        "score" : 0,
        "timeTrackStarted" : 1604726739894,
        "uri" : "spotify:track:4ljlAxfaEjO4Q4g9FMtVj4"
      },
      "5WfACgyEk4rwdWU3rrzNt1" : {
        "album" : {
          "name" : "Godspeed",
          "uri" : "spotify:album:0qYRbCu2dmz948wOiROlcC"
        },
        "artists" : [ {
          "external_urls" : {
            "spotify" : "https://open.spotify.com/artist/53KwLdlmrlCelAZMaLVZqU"
          },
          "href" : "https://api.spotify.com/v1/artists/53KwLdlmrlCelAZMaLVZqU",
          "id" : "53KwLdlmrlCelAZMaLVZqU",
          "name" : "James Blake",
          "type" : "artist",
          "uri" : "spotify:artist:53KwLdlmrlCelAZMaLVZqU"
        } ],
        "duration" : 173840,
        "id" : "5WfACgyEk4rwdWU3rrzNt1",
        "image" : "https://i.scdn.co/image/ab67616d00001e02c7fdf13f4d55b4f0f0c6d1a6",
        "isPaused" : false,
        "name" : "Godspeed",
        "score" : 0,
        "timeTrackStarted" : 1604792985943,
        "uri" : "spotify:track:5WfACgyEk4rwdWU3rrzNt1"
      },
      "630Ug0XtmhhFvAKo0PNuEI" : {
        "album" : {
          "name" : "Remember Me",
          "uri" : "spotify:album:4iLi0ZWdcYtCZvsXZHTRLx"
        },
        "artists" : [ {
          "external_urls" : {
            "spotify" : "https://open.spotify.com/artist/4ClziihVpBeFXNyDH83Lde"
          },
          "href" : "https://api.spotify.com/v1/artists/4ClziihVpBeFXNyDH83Lde",
          "id" : "4ClziihVpBeFXNyDH83Lde",
          "name" : "UMI",
          "type" : "artist",
          "uri" : "spotify:artist:4ClziihVpBeFXNyDH83Lde"
        } ],
        "duration" : 199226,
        "id" : "630Ug0XtmhhFvAKo0PNuEI",
        "image" : "https://i.scdn.co/image/ab67616d00001e022b2fe53607e28f85e928fd14",
        "isPaused" : false,
        "name" : "Remember Me",
        "score" : 0,
        "timeTrackStarted" : 1604725313421,
        "uri" : "spotify:track:630Ug0XtmhhFvAKo0PNuEI"
      },
      "6DCZcSspjsKoFjzjrWoCdn" : {
        "album" : {
          "name" : "Scorpion",
          "uri" : "spotify:album:1ATL5GLyefJaxhQzSPVrLX"
        },
        "artists" : [ {
          "external_urls" : {
            "spotify" : "https://open.spotify.com/artist/3TVXtAsR1Inumwj472S9r4"
          },
          "href" : "https://api.spotify.com/v1/artists/3TVXtAsR1Inumwj472S9r4",
          "id" : "3TVXtAsR1Inumwj472S9r4",
          "name" : "Drake",
          "type" : "artist",
          "uri" : "spotify:artist:3TVXtAsR1Inumwj472S9r4"
        } ],
        "duration" : 198973,
        "id" : "6DCZcSspjsKoFjzjrWoCdn",
        "image" : "https://i.scdn.co/image/ab67616d00001e02f907de96b9a4fbc04accc0d5",
        "isPaused" : false,
        "name" : "God's Plan",
        "score" : 1,
        "timeTrackStarted" : 1604809069291,
        "uri" : "spotify:track:6DCZcSspjsKoFjzjrWoCdn"
      },
      "6Juv5N0dNU1imms9c9u1dA" : {
        "album" : {
          "name" : "Papi Chulo",
          "uri" : "spotify:album:33FmsnS00we0hrD1NrGniq"
        },
        "artists" : [ {
          "external_urls" : {
            "spotify" : "https://open.spotify.com/artist/5zfEatKLDdRkgbw6sdLBAQ"
          },
          "href" : "https://api.spotify.com/v1/artists/5zfEatKLDdRkgbw6sdLBAQ",
          "id" : "5zfEatKLDdRkgbw6sdLBAQ",
          "name" : "Octavian",
          "type" : "artist",
          "uri" : "spotify:artist:5zfEatKLDdRkgbw6sdLBAQ"
        }, {
          "external_urls" : {
            "spotify" : "https://open.spotify.com/artist/2p1fiYHYiXz9qi0JJyxBzN"
          },
          "href" : "https://api.spotify.com/v1/artists/2p1fiYHYiXz9qi0JJyxBzN",
          "id" : "2p1fiYHYiXz9qi0JJyxBzN",
          "name" : "Skepta",
          "type" : "artist",
          "uri" : "spotify:artist:2p1fiYHYiXz9qi0JJyxBzN"
        } ],
        "duration" : 161667,
        "id" : "6Juv5N0dNU1imms9c9u1dA",
        "image" : "https://i.scdn.co/image/ab67616d00001e025c6f5a61cfefe5e0bc20f131",
        "isPaused" : false,
        "name" : "Papi Chulo",
        "score" : 0,
        "timeTrackStarted" : 1601269219584,
        "uri" : "spotify:track:6Juv5N0dNU1imms9c9u1dA"
      },
      "7sBgFMWqDWQgrsNSpIBoe8" : {
        "album" : {
          "name" : "JESUS IS KING",
          "uri" : "spotify:album:0FgZKfoU2Br5sHOfvZKTI9"
        },
        "artists" : [ {
          "external_urls" : {
            "spotify" : "https://open.spotify.com/artist/5K4W6rqBFWDnAN6FQUkS6x"
          },
          "href" : "https://api.spotify.com/v1/artists/5K4W6rqBFWDnAN6FQUkS6x",
          "id" : "5K4W6rqBFWDnAN6FQUkS6x",
          "name" : "Kanye West",
          "type" : "artist",
          "uri" : "spotify:artist:5K4W6rqBFWDnAN6FQUkS6x"
        } ],
        "duration" : 49292,
        "id" : "7sBgFMWqDWQgrsNSpIBoe8",
        "image" : "https://i.scdn.co/image/ab67616d00001e021bb797bbfe2480650b6c2964",
        "isPaused" : false,
        "name" : "Jesus Is Lord",
        "score" : 0,
        "timeTrackStarted" : 1600663054646,
        "uri" : "spotify:track:7sBgFMWqDWQgrsNSpIBoe8"
      }
    }
  },
  "messages" : {
    "R1" : {
      "-MGvRGJF_iJXXGQzbA0v" : {
        "text" : "Here",
        "timestamp" : 1599798842763,
        "user" : {
          "_id" : "andreibuiza",
          "avatar" : "https://platform-lookaside.fbsbx.com/platform/profilepic/?asid=10154034715358356&height=300&width=300&ext=1602349294&hash=AeQTubA0jMJVVMJK",
          "name" : "Andrei Buiza"
        }
      }
    },
    "R2" : {
      "-MGq6K7JQHStzNCdEU6y" : {
        "text" : "Thanks",
        "timestamp" : 1599709467277,
        "user" : {
          "_id" : "andreibuiza",
          "avatar" : "https://platform-lookaside.fbsbx.com/platform/profilepic/?asid=10154034715358356&height=300&width=300&ext=1602260793&hash=AeRHmcFFbQAv-0lo",
          "name" : "Andrei Buiza"
        }
      },
      "-MGq7p-H1smQzJdjlRlB" : {
        "text" : "Hey",
        "timestamp" : 1599709860016,
        "user" : {
          "_id" : "andreibuiza",
          "avatar" : "https://platform-lookaside.fbsbx.com/platform/profilepic/?asid=10154034715358356&height=300&width=300&ext=1602260793&hash=AeRHmcFFbQAv-0lo",
          "name" : "Andrei Buiza"
        }
      },
      "-MGqNUr9vaSGxmgQvD8R" : {
        "text" : "Finally...",
        "timestamp" : 1599713967686,
        "user" : {
          "_id" : "andreibuiza",
          "avatar" : "https://platform-lookaside.fbsbx.com/platform/profilepic/?asid=10154034715358356&height=300&width=300&ext=1602304093&hash=AeSBzH17NUbjfisp",
          "name" : "Andrei Buiza"
        }
      },
      "-MGqNZCd-_09ZMuDRTTT" : {
        "text" : "What",
        "timestamp" : 1599713985505,
        "user" : {
          "_id" : "andreibuiza",
          "avatar" : "https://platform-lookaside.fbsbx.com/platform/profilepic/?asid=10154034715358356&height=300&width=300&ext=1602304093&hash=AeSBzH17NUbjfisp",
          "name" : "Andrei Buiza"
        }
      },
      "-MGvR1KQtKrjfoZigvpX" : {
        "text" : "Ok...",
        "timestamp" : 1599798781399,
        "user" : {
          "_id" : "andreibuiza",
          "avatar" : "https://platform-lookaside.fbsbx.com/platform/profilepic/?asid=10154034715358356&height=300&width=300&ext=1602349294&hash=AeQTubA0jMJVVMJK",
          "name" : "Andrei Buiza"
        }
      },
      "-MGzWpx-a6HnfOu-8V3S" : {
        "text" : "Hey guys",
        "timestamp" : 1599867412386,
        "user" : {
          "_id" : "andreibuiza",
          "avatar" : "https://platform-lookaside.fbsbx.com/platform/profilepic/?asid=10154034715358356&height=300&width=300&ext=1602442216&hash=AeScGDvwb0bJO29m",
          "name" : "Andrei Buiza"
        }
      },
      "-MH-UvWDcLzByAqw_apA" : {
        "text" : "Hi",
        "timestamp" : 1599883688140,
        "user" : {
          "_id" : "andreibuiza",
          "avatar" : "https://platform-lookaside.fbsbx.com/platform/profilepic/?asid=10154034715358356&height=300&width=300&ext=1602442216&hash=AeScGDvwb0bJO29m",
          "name" : "Andrei Buiza"
        }
      },
      "-MH4ey45W3wxz3XaiJjt" : {
        "text" : "Heeeey",
        "timestamp" : 1599970468316,
        "user" : {
          "_id" : "andreibuiza",
          "avatar" : "https://platform-lookaside.fbsbx.com/platform/profilepic/?asid=10154034715358356&height=300&width=300&ext=1602529657&hash=AeT2vg2qIMvvkpJ2",
          "name" : "Andrei Buiza"
        }
      }
    },
    "Re" : {
      "-MHj0FksuZYOiQvoWrMo" : {
        "text" : "At last...",
        "timestamp" : 1600664177791,
        "user" : {
          "_id" : "andreibuiza",
          "avatar" : "https://platform-lookaside.fbsbx.com/platform/profilepic/?asid=10154034715358356&height=300&width=300&ext=1603219017&hash=AeR06LTBOgz-nwk8",
          "name" : "Andrei Buiza"
        }
      },
      "-MIGJneZYzQbYGiLzwgW" : {
        "text" : "ios",
        "timestamp" : 1601239726855,
        "user" : {
          "_id" : "andreibuiza",
          "avatar" : "https://platform-lookaside.fbsbx.com/platform/profilepic/?asid=10154034715358356&height=300&width=300&ext=1603816023&hash=AeQ3U1sQDvGgx00F",
          "name" : "Andrei Buiza"
        }
      },
      "-MJcV3IQZVuHZJLEyQMi" : {
        "text" : "Ffhbggu",
        "timestamp" : 1602702296364,
        "user" : {
          "_id" : "andreibuiza",
          "avatar" : "https://platform-lookaside.fbsbx.com/platform/profilepic/?asid=10154034715358356&height=300&width=300&ext=1605286074&hash=AeQJrvnyi4et8bAdHrE",
          "name" : "Andrei Buiza"
        }
      }
    }
  },
  "music" : {
    "R1" : {
      "isPaused" : false,
      "playbackOptions" : {
        "isShuffling" : true,
        "repeatMode" : 0
      },
      "playbackPosition" : 45338,
      "playbackRestrictions" : {
        "canRepeatContext" : true,
        "canRepeatTrack" : true,
        "canSeek" : true,
        "canSkipNext" : true,
        "canSkipPrev" : false,
        "canToggleShuffle" : true
      },
      "timeTrackStarted" : 1599628233000,
      "track" : {
        "album" : {
          "name" : "Si Tu Te Atreves",
          "uri" : "spotify:album:19IQ2sU56lX0LyMitN18lG"
        },
        "artist" : {
          "name" : "Tito Nieves",
          "uri" : "spotify:artist:4vOycwLXdkMMzpZW04VW5m"
        },
        "duration" : 226821,
        "isEpisode" : false,
        "isPodcast" : false,
        "name" : "Si Tu Te Atreves",
        "uri" : "spotify:track:5RL1L8aKizWilny9oVXSGh"
      }
    },
    "R2" : {
      "isPaused" : true,
      "playbackOptions" : {
        "isShuffling" : false,
        "repeatMode" : 0
      },
      "playbackPosition" : 13584,
      "playbackRestrictions" : {
        "canRepeatContext" : true,
        "canRepeatTrack" : true,
        "canSeek" : true,
        "canSkipNext" : true,
        "canSkipPrev" : true,
        "canToggleShuffle" : true
      },
      "timeTrackStarted" : 1599971344319,
      "track" : {
        "album" : {
          "name" : "Tha Carter V",
          "uri" : "spotify:album:50yFYgKdwJANZ5O9MIbMkg"
        },
        "artist" : {
          "name" : "Lil Wayne",
          "uri" : "spotify:artist:55Aa2cqylxrFIXC767Z865"
        },
        "duration" : 194184,
        "isEpisode" : false,
        "isPodcast" : false,
        "name" : "Uproar",
        "uri" : "spotify:track:3wScL5W8H40zzCKN0atfBk"
      }
    },
    "Re" : {
      "album" : {
        "name" : "Ngayong Gabi",
        "uri" : "spotify:album:51UmoT2xdda5pAZcRFMiot"
      },
      "artists" : [ {
        "external_urls" : {
          "spotify" : "https://open.spotify.com/artist/2G7VQ1kVhVfNagytlousgm"
        },
        "href" : "https://api.spotify.com/v1/artists/2G7VQ1kVhVfNagytlousgm",
        "id" : "2G7VQ1kVhVfNagytlousgm",
        "name" : "Al James",
        "type" : "artist",
        "uri" : "spotify:artist:2G7VQ1kVhVfNagytlousgm"
      } ],
      "duration" : 267456,
      "id" : "5sLGYJOhLP197nmkaRMMEH",
      "image" : "https://i.scdn.co/image/ab67616d00001e02317c2d7e135c19f83f96be2a",
      "isPaused" : false,
      "name" : "Ngayong Gabi",
      "score" : 0,
      "timeTrackStarted" : 1604812615218,
      "uri" : "spotify:track:5sLGYJOhLP197nmkaRMMEH"
    }
  },
  "queue" : {
    "Re" : [ {
      "album" : {
        "name" : "Ngayong Pasko Magniningning Ang Pilipino",
        "uri" : "spotify:album:1iTHEdCenvCG7Ei6ezJ3GT"
      },
      "artists" : [ {
        "external_urls" : {
          "spotify" : "https://open.spotify.com/artist/0RHiqaoRCsFLPeEuj3OQz4"
        },
        "href" : "https://api.spotify.com/v1/artists/0RHiqaoRCsFLPeEuj3OQz4",
        "id" : "0RHiqaoRCsFLPeEuj3OQz4",
        "name" : "Gary Valenciano",
        "type" : "artist",
        "uri" : "spotify:artist:0RHiqaoRCsFLPeEuj3OQz4"
      }, {
        "external_urls" : {
          "spotify" : "https://open.spotify.com/artist/5BAyYwbv8OSfqeXMjPgWX6"
        },
        "href" : "https://api.spotify.com/v1/artists/5BAyYwbv8OSfqeXMjPgWX6",
        "id" : "5BAyYwbv8OSfqeXMjPgWX6",
        "name" : "Toni Gonzaga",
        "type" : "artist",
        "uri" : "spotify:artist:5BAyYwbv8OSfqeXMjPgWX6"
      } ],
      "duration" : 274811,
      "id" : "2cZGqSAb7EcmpYMVDSYA2J",
      "image" : "https://i.scdn.co/image/ab67616d00001e02c5ea55dc69de362f24363acb",
      "name" : "Ngayong Pasko Magniningning Ang Pilipino",
      "score" : 123,
      "uri" : "spotify:track:2cZGqSAb7EcmpYMVDSYA2J"
    }, {
      "album" : {
        "name" : "An ABS-CBN Christmas",
        "uri" : "spotify:album:6qLQzrlhbTEhw7VuGVzs9E"
      },
      "artists" : [ {
        "external_urls" : {
          "spotify" : "https://open.spotify.com/artist/2H4bbbOohoe9zhqEsiRi7j"
        },
        "href" : "https://api.spotify.com/v1/artists/2H4bbbOohoe9zhqEsiRi7j",
        "id" : "2H4bbbOohoe9zhqEsiRi7j",
        "name" : "ABS-CBN Music All Star",
        "type" : "artist",
        "uri" : "spotify:artist:2H4bbbOohoe9zhqEsiRi7j"
      } ],
      "duration" : 274811,
      "id" : "1LPnf1HQm4KEfTprVoaf1s",
      "image" : "https://i.scdn.co/image/ab67616d00001e025cb3819548eca6038cb43de3",
      "name" : "Ngayong Pasko Magniningning Ang Pilipino",
      "score" : 321,
      "uri" : "spotify:track:1LPnf1HQm4KEfTprVoaf1s"
    }, {
      "album" : {
        "name" : "Ngayong Gabi (Zelijah Remix)",
        "uri" : "spotify:album:62l3K7i2ngXOSxarkTEypx"
      },
      "artists" : [ {
        "external_urls" : {
          "spotify" : "https://open.spotify.com/artist/2G7VQ1kVhVfNagytlousgm"
        },
        "href" : "https://api.spotify.com/v1/artists/2G7VQ1kVhVfNagytlousgm",
        "id" : "2G7VQ1kVhVfNagytlousgm",
        "name" : "Al James",
        "type" : "artist",
        "uri" : "spotify:artist:2G7VQ1kVhVfNagytlousgm"
      }, {
        "external_urls" : {
          "spotify" : "https://open.spotify.com/artist/2y064CoJnQj4Nix1RV0Rlu"
        },
        "href" : "https://api.spotify.com/v1/artists/2y064CoJnQj4Nix1RV0Rlu",
        "id" : "2y064CoJnQj4Nix1RV0Rlu",
        "name" : "Zelijah",
        "type" : "artist",
        "uri" : "spotify:artist:2y064CoJnQj4Nix1RV0Rlu"
      } ],
      "duration" : 233653,
      "id" : "2b8H7QkKpeC2W9gaWElOtD",
      "image" : "https://i.scdn.co/image/ab67616d00001e02b56fd14d32ad974473ec65f3",
      "name" : "Ngayong Gabi (Zelijah Remix)",
      "score" : 1,
      "uri" : "spotify:track:2b8H7QkKpeC2W9gaWElOtD"
    } ]
  },
  "recommend" : {
    "R1" : {
      "0ztDBQdQmdVZvorSmIjMih" : {
        "albumUri" : "spotify:album:05rQadwAVYTpNNnBoeTuj0",
        "artist" : {
          "external_urls" : {
            "spotify" : "https://open.spotify.com/artist/0rZRTXEmmPmx6gt92tBqIc"
          },
          "href" : "https://api.spotify.com/v1/artists/0rZRTXEmmPmx6gt92tBqIc",
          "id" : "0rZRTXEmmPmx6gt92tBqIc",
          "name" : "Moira Dela Torre",
          "type" : "artist",
          "uri" : "spotify:artist:0rZRTXEmmPmx6gt92tBqIc"
        },
        "id" : "0ztDBQdQmdVZvorSmIjMih",
        "image" : "https://i.scdn.co/image/ab67616d0000b27384c39a72230ca78d8223dcec",
        "name" : "Tagpuan",
        "status" : "Pending",
        "trackUri" : "spotify:track:0ztDBQdQmdVZvorSmIjMih",
        "userInfo" : {
          "id" : "spotify:user:andreibuiza",
          "name" : "Andrei Buiza"
        },
        "vote" : 0
      },
      "2iOnWSWcChoGmUufbrQ00e" : {
        "albumUri" : "spotify:album:05rQadwAVYTpNNnBoeTuj0",
        "artist" : {
          "external_urls" : {
            "spotify" : "https://open.spotify.com/artist/0rZRTXEmmPmx6gt92tBqIc"
          },
          "href" : "https://api.spotify.com/v1/artists/0rZRTXEmmPmx6gt92tBqIc",
          "id" : "0rZRTXEmmPmx6gt92tBqIc",
          "name" : "Moira Dela Torre",
          "type" : "artist",
          "uri" : "spotify:artist:0rZRTXEmmPmx6gt92tBqIc"
        },
        "id" : "2iOnWSWcChoGmUufbrQ00e",
        "image" : "https://i.scdn.co/image/ab67616d0000b27384c39a72230ca78d8223dcec",
        "name" : "Tagu-Taguan",
        "status" : "Pending",
        "trackUri" : "spotify:track:2iOnWSWcChoGmUufbrQ00e",
        "userInfo" : {
          "id" : "spotify:user:andreibuiza",
          "name" : "Andrei Buiza"
        },
        "vote" : 0
      },
      "3u1FiuSpfsgVnekEMXgMwJ" : {
        "albumUri" : "spotify:album:5JpH5T1sCYnUyZD6TM0QaY",
        "artist" : {
          "external_urls" : {
            "spotify" : "https://open.spotify.com/artist/63yrD80RY3RNEM2YDpUpO8"
          },
          "href" : "https://api.spotify.com/v1/artists/63yrD80RY3RNEM2YDpUpO8",
          "id" : "63yrD80RY3RNEM2YDpUpO8",
          "name" : "Melanie Martinez",
          "type" : "artist",
          "uri" : "spotify:artist:63yrD80RY3RNEM2YDpUpO8"
        },
        "id" : "3u1FiuSpfsgVnekEMXgMwJ",
        "image" : "https://i.scdn.co/image/ab67616d0000b2733899712512f50a8d9e01e951",
        "name" : "Tag, You're It",
        "status" : "Pending",
        "trackUri" : "spotify:track:3u1FiuSpfsgVnekEMXgMwJ",
        "userInfo" : {
          "id" : "spotify:user:andreibuiza",
          "name" : "Andrei Buiza"
        },
        "vote" : 3
      }
    },
    "R2" : {
      "4oHwWMy590WH5zmgB8VbKP" : {
        "albumUri" : "spotify:album:45SnvUo6f9hwt1lrt244Lr",
        "artist" : {
          "external_urls" : {
            "spotify" : "https://open.spotify.com/artist/3PDFGpPl4ienSn5Vwisfrh"
          },
          "href" : "https://api.spotify.com/v1/artists/3PDFGpPl4ienSn5Vwisfrh",
          "id" : "3PDFGpPl4ienSn5Vwisfrh",
          "name" : "Flow G",
          "type" : "artist",
          "uri" : "spotify:artist:3PDFGpPl4ienSn5Vwisfrh"
        },
        "id" : "4oHwWMy590WH5zmgB8VbKP",
        "image" : "https://i.scdn.co/image/ab67616d0000b273b71ccd2ba0d3d40647966f66",
        "name" : "Pasaload",
        "status" : "Pending",
        "trackUri" : "spotify:track:4oHwWMy590WH5zmgB8VbKP",
        "userInfo" : {
          "id" : "spotify:user:andreibuiza",
          "name" : "Andrei Buiza"
        },
        "vote" : 10
      },
      "5cpJFiNwYyWwFLH0V6B3N8" : {
        "albumUri" : "spotify:album:69iuPQsXel3luOSDNF0q2Q",
        "artist" : {
          "external_urls" : {
            "spotify" : "https://open.spotify.com/artist/1i8SpTcr7yvPOmcqrbnVXY"
          },
          "href" : "https://api.spotify.com/v1/artists/1i8SpTcr7yvPOmcqrbnVXY",
          "id" : "1i8SpTcr7yvPOmcqrbnVXY",
          "name" : "Ozuna",
          "type" : "artist",
          "uri" : "spotify:artist:1i8SpTcr7yvPOmcqrbnVXY"
        },
        "id" : "5cpJFiNwYyWwFLH0V6B3N8",
        "image" : "https://i.scdn.co/image/ab67616d0000b273b1717c201d31ad8e43dedc55",
        "name" : "Del Mar",
        "status" : "Pending",
        "trackUri" : "spotify:track:5cpJFiNwYyWwFLH0V6B3N8",
        "userInfo" : {
          "id" : "spotify:user:andreibuiza",
          "name" : "Andrei Buiza"
        },
        "vote" : 10
      },
      "7HU0fgCVI8ZcdCum2bZThz" : {
        "albumUri" : "spotify:album:1A7qPmUnzUslI094zi35QP",
        "artist" : {
          "external_urls" : {
            "spotify" : "https://open.spotify.com/artist/157L8iTHgbdrKVxdQEXluh"
          },
          "href" : "https://api.spotify.com/v1/artists/157L8iTHgbdrKVxdQEXluh",
          "id" : "157L8iTHgbdrKVxdQEXluh",
          "name" : "Lost Sky",
          "type" : "artist",
          "uri" : "spotify:artist:157L8iTHgbdrKVxdQEXluh"
        },
        "id" : "7HU0fgCVI8ZcdCum2bZThz",
        "image" : "https://i.scdn.co/image/ab67616d0000b273f1cfa41a28a0a2d3ef90faaa",
        "name" : "Fearless",
        "status" : "Pending",
        "trackUri" : "spotify:track:7HU0fgCVI8ZcdCum2bZThz",
        "userInfo" : {
          "id" : "spotify:user:andreibuiza",
          "name" : "Andrei Buiza"
        },
        "vote" : 6
      }
    }
  },
  "roomMeta" : {
    "R1" : {
      "dj" : {
        "id" : "andreibuizas",
        "name" : "Andrei Buiza"
      },
      "maxNumAudience" : 10,
      "name" : "R1",
      "score" : 0
    },
    "R2" : {
      "dj" : {
        "id" : "andreibuiza",
        "name" : "Andrei Buiza"
      },
      "maxNumAudience" : 10,
      "name" : "R2",
      "score" : 0,
      "users" : {
        "andreibuiza" : {
          "display_name" : "Andrei Buiza",
          "id" : "andreibuiza",
          "image" : "https://platform-lookaside.fbsbx.com/platform/profilepic/?asid=10154034715358356&height=300&width=300&ext=1602529657&hash=AeT2vg2qIMvvkpJ2",
          "isDj" : true,
          "userUri" : "spotify:user:andreibuiza"
        }
      }
    },
    "Re" : {
      "dj" : {
        "id" : "andreibuiza",
        "name" : "Andrei Buiza"
      },
      "maxNumAudience" : 10,
      "name" : "Re",
      "score" : 10,
      "users" : {
        "andreibuiza" : {
          "display_name" : "Andrei Buiza",
          "id" : "andreibuiza",
          "image" : "https://platform-lookaside.fbsbx.com/platform/profilepic/?asid=10154034715358356&height=300&width=300&ext=1607365388&hash=AeTfrhteDbkDOS9PMKs",
          "isDj" : true,
          "userUri" : "spotify:user:andreibuiza"
        }
      }
    }
  }
}
